<svg xmlns="http://www.w3.org/2000/svg" fill-rule="evenodd" stroke-linejoin="round" stroke-miterlimit="1.4" clip-rule="evenodd" viewBox="0 0 72 48">
  <path fill="#dedede" d="M0 0h72v48H0z"/>
  <path fill="#ccc" d="M34 23.2c-.1-.4-.7-1.2-.7-2.4 0-1.1.6-1.9 1.4-2.4a3 3 0 0 1 3-.3c1.2.7 1.2 2 1.2 2v3.2h.8c.3 0 .3.3.3.3s-.1.2-.3.2h-.8v3.9l.1 1.2c0 .3.3.7.5.7.4 0 .6-.3.7-.4.2-.2.6-.2.6-.2l-.6.7c-.4.3-.7.5-1.2.4-.6 0-.8-.2-1.1-.6-.4-.5-.4-1.3-.4-1.3v-4.5h-.6v-.2c0-.2.3-.1.3-.1h.3v-1.2l.1-.2.8-1s.4-.9 0-1.7c-.4-.7-1-1.1-2.1-1a2.8 2.8 0 0 0-2.7 2.5c0 1 .3 1.7 1.2 2.5h.6l.5-.2c.1 0 .2 0 .2.4V26l-.4-.2v-.4c0-.5-.3-1-.4-1.2-.3-.4-.5-.7-1.1-.7-1.2 0-1.8.8-1.8.8s.6-.4.6.2l-.2 1.8v2c.2.7.6 1.3 1.5 1.4.5 0 1-.4 1.2-.7.4-.5.6-1.4.6-1.4h.3s0 .5-.2.9c-.2.5-.3.8-.7 1.1-.5.4-.8.5-1.4.5a3 3 0 0 1-2-1c-.6-.7-.8-1.4-.8-2.4-.1-1.2.2-2 .9-2.8.6-.7 1.5-.8 1.9-.8z">
    <!--animate attributeName="opacity" values="0;1;0" dur="3s" begin="2s;" repeatCount="indefinite"/-->
  </path>
</svg>
